/Users/imrankabir/IdeaProjects/BootCampFrameworkTeam7/Generic/src/main/java/reporting/ExtentManager.java
/Users/imrankabir/IdeaProjects/BootCampFrameworkTeam7/Generic/src/main/java/reporting/ApplicationLog.java
/Users/imrankabir/IdeaProjects/BootCampFrameworkTeam7/Generic/src/main/java/utilities/ReadExcelFile.java
/Users/imrankabir/IdeaProjects/BootCampFrameworkTeam7/Generic/src/main/java/base/CommonAPI.java
/Users/imrankabir/IdeaProjects/BootCampFrameworkTeam7/Generic/src/main/java/utilities/DataEngine.java
/Users/imrankabir/IdeaProjects/BootCampFrameworkTeam7/Generic/src/main/java/utilities/KeywordOperation.java
/Users/imrankabir/IdeaProjects/BootCampFrameworkTeam7/Generic/src/main/java/reporting/TestLogger.java
/Users/imrankabir/IdeaProjects/BootCampFrameworkTeam7/Generic/src/main/java/reporting/ExtentTestManager.java
/Users/imrankabir/IdeaProjects/BootCampFrameworkTeam7/Generic/src/main/java/utilities/GoogleSheetAPI.java
/Users/imrankabir/IdeaProjects/BootCampFrameworkTeam7/Generic/src/main/java/utilities/MongoConnection.java
